C:\Users\HK001167\Desktop\intranet\src\main\java\com\intranet\dto\ResponseDto.java
C:\Users\HK001167\Desktop\intranet\src\main\java\com\intranet\service\EmployeeService.java
C:\Users\HK001167\Desktop\intranet\src\main\java\com\intranet\rest\ConferenceRoomController.java
C:\Users\HK001167\Desktop\intranet\src\main\java\com\intranet\entity\Gallery.java
C:\Users\HK001167\Desktop\intranet\src\main\java\com\intranet\jpa\MasterJpaConfig.java
C:\Users\HK001167\Desktop\intranet\src\main\java\com\intranet\rest\EmployeeController.java
C:\Users\HK001167\Desktop\intranet\src\main\java\com\intranet\rest\HomeController.java
C:\Users\HK001167\Desktop\intranet\src\main\java\com\intranet\utilities\SessionIdentifierGenerator.java
C:\Users\HK001167\Desktop\intranet\src\main\java\com\intranet\rest\GalleryController.java
C:\Users\HK001167\Desktop\intranet\src\main\java\com\intranet\entity\ConferenceRoomBooking.java
C:\Users\HK001167\Desktop\intranet\src\main\java\com\intranet\entity\Circular.java
C:\Users\HK001167\Desktop\intranet\src\main\java\com\intranet\service\CircularService.java
C:\Users\HK001167\Desktop\intranet\src\main\java\com\intranet\jpa\EmployeeRepository.java
C:\Users\HK001167\Desktop\intranet\src\main\java\com\intranet\IntranetInitializer.java
C:\Users\HK001167\Desktop\intranet\src\main\java\com\intranet\jpa\ConferenceRoomRepository.java
C:\Users\HK001167\Desktop\intranet\src\main\java\com\intranet\service\GalleryService.java
C:\Users\HK001167\Desktop\intranet\src\main\java\com\intranet\entity\EmployeeDetail.java
C:\Users\HK001167\Desktop\intranet\src\main\java\com\intranet\rest\CircularController.java
C:\Users\HK001167\Desktop\intranet\src\main\java\com\intranet\jpa\GalleryRepository.java
C:\Users\HK001167\Desktop\intranet\src\main\java\com\intranet\jpa\CircularRepository.java
C:\Users\HK001167\Desktop\intranet\src\main\java\com\intranet\service\ConferenceRoomService.java
